{
    //hearofnight夜听枫语
    "spider": "https://hon.9890899.xyz/META-INF/JDK/HONTV_20250118101607.jar;md5;ade280a3c6128ef77f1c3718bd2c2faa",
    "wallpaper":"http://live.9890899.xyz:8880/",
    "lives": [
    {
        "name": "直播",
        "type": 0,
        "playerType": 1,
        "url": "http://pro.9890899.xyz:880/live20230905",        
        "epg":"http://epg.9890899.xyz:882/api/diyp/?ch={name}&date={date}",
        "logo": "https://live.fanmingming.com/tv/{name}.png"
    },
    {
      "group": "redirect",
      "channels": [
        {
          "name": "live",
          "urls": [
            "proxy://do=live&type=txt&ext=aHR0cDovL3Byby5ob250di5jbjo4ODAvbGl2ZTIwMjMwOTA1"
          ]
        }
      ],
      "epg":"http://epg.9890899.xyz:882"
	  //"logo": "https://live.fanmingming.com/tv/{name}.png"
    }
  ] ,
    "sites": [
      /*
    {
            "key": "csp_SuBaiBai",
            "name": "主力一|高清",
            "type": 3,
            "api": "csp_SuBaiBai",
            "searchable": 1,
            "quickSearch": 1,
            "filterable": 1,
            "ua": "Mozilla/5.0 (Windows NT 10.0; Win64; x64) AppleWebKit/537.36 (KHTML, like Gecko) Chrome/133.0.0.0 Safari/537.36",
            "ext": "https://subaibai.vip/"
      },
      */
    {
            "key": "csp_Nongm",
            "name": "主力二|高清",
            "type": 3,
            "api": "csp_Nongm",
            "searchable": 1,
            "quickSearch": 1,
            "filterable": 1,
            "ext": "https://wwgz.cn"
      },
    {
            "key": "csp_Qiyou",
            "name": "主力三|高清",
            "type": 3,
            "api": "csp_Qiyou",
            "searchable": 1,
            "quickSearch": 1,
            "filterable": 1,
 //           "playerType": 2,
            "ext": "http://www.dyxz2.com/"
      },
     {
            "key": "csp_Lkdy",
            "name": "主力四|高清",
            "type": 3,
            "api": "csp_Lkdy",
            "searchable": 1,
            "quickSearch": 1,
            "filterable": 1
      },
 
 /**   {
            "key": "厂长资源1",
            "name":"主力四|高清",
            "type": 3,
            "api": "https://hon.9890899.xyz/honjs/libs/drpy2.min.js",
            "searchable": 1,
            "quickSearch": 1,
            "filterable": 1,
            "ext": "https://hon.9890899.xyz/honjs/libs/czspp.js"
      },
 */
     {
            "key": "厂长资源",
            "name": "主力五|高清",
            "type": 3,
            "api": "csp_Czsapp",
            "searchable": 1,
            "quickSearch": 1,
            "filterable": 1,
 //           "jar":"https://hon.9890899.xyz/META-INF/JDK/HONTV_202306060153.jar;md5;b42276351a9a7c539d2e43be512b52f1",
            "ext": "https://www.cz01.vip/"
      },
    {
            "key": "厂长资源2",
            "name": "主力六|高清",
            "type": 3,
            "api": "csp_NewCz",
            "searchable": 1,
            "quickSearch": 1,
            "filterable": 1,
            "jar":"https://hon.9890899.xyz/META-INF/JDK/HONTV_20240612181309.jar;md5;e2dea6deba1ec67c45a3e20ff418922e",
            "ext": "https://www.cz01.vip/"
      },
    {
            "key": "荐片",
            "name": "主力八|高清",
            "type": 3,
            "api": "csp_Jianpian",
            "searchable": 1,
            "quickSearch": 1,
            "filterable": 1,
            "jar":"https://hon.9890899.xyz/META-INF/JDK/HONTV_20240527172722.jar;md5;300385ecd7c80724731d5a3bb6feafd2",
            "ext":"http://api2.rinhome.com",
            "playerType": "1"
      },
    {
            "key": "低端",
            "name": "主力九|高清",
            "type": 3,
            "api": "https://hon.9890899.xyz/honjs/libs/drpy2.min.js",
            "searchable": 1,
            "quickSearch": 1,
            "filterable": 1,
            "ext": "https://hon.9890899.xyz/honjs/libs/ddys.js",
            "playerType": "2"
      },
    {
            "key": "csp_xml_非凡资源",
            "name": "高清vip(主力一)",
            "type": 1,
            "api": "https://cj.ffzyapi.com/api.php/provide/vod/",
            "playUrl": "",
            "searchable": 1,
            "quickSearch": 1,
            "filterable": 1,
 //           "categories": ["国产剧","欧美剧","香港剧","韩国剧","台湾剧","日本剧","海外剧","泰国剧","国产动漫","日韩动漫","欧美动漫","港台动漫", "海外动漫","大陆综艺","港台综艺","日韩综艺","欧美综艺","动作片","喜剧片","科幻片","恐怖片","爱情片","剧情片","战争片","记录片"]
             "categories": [
               "短剧",
               "国产动漫",
               "日韩动漫",
               "国产剧",
               "韩国剧",
               "日本剧",
               "动漫片",
               "动作片",
               "喜剧片",
               "爱情片",
               "科幻片",
               "恐怖片",
               "剧情片",
               "战争片",
               "香港剧",
               "欧美剧",
               "记录片",
               "台湾剧",
               "海外剧",
               "泰国剧",
               "大陆综艺",
               "港台综艺",
               "日韩综艺",
               "欧美综艺",
               "欧美动漫",
               "港台动漫",
               "海外动漫"
               ]
      },
    {
            "key": "量子资源",
            "name": "高清vip(主力二)",
            "type": 1,
            "api": "https://cj.lzcaiji.com/api.php/provide/vod/",
            "playUrl": "",
            "searchable": 1,
            "quickSearch": 1,
            "filterable": 1,
            "categories": [
               "短剧",
               "国产动漫",
               "日韩动漫",
               "国产剧",
               "韩国剧",
               "日本剧",
               "动漫片",
               "动作片",
               "喜剧片",
               "爱情片",
               "科幻片",
               "恐怖片",
               "剧情片",
               "战争片",
               "香港剧",
               "欧美剧",
               "记录片",
               "台湾剧",
               "海外剧",
               "泰国剧",
               "大陆综艺",
               "港台综艺",
               "日韩综艺",
               "欧美综艺",
               "欧美动漫",
               "港台动漫",
               "海外动漫"
               ]
 //           "categories": ["国产剧","香港剧","韩国剧","欧美剧","记录片","台湾剧","日本剧","海外剧","泰国剧","大陆综艺","港台综艺","日韩综艺","欧美综艺","国产动漫","日韩动漫","欧美动漫","港台动漫","海外动漫","动作片","喜剧片","爱情片","科幻片","恐怖片","剧情片","战争片","伦理片","电影解说"]

      }
    ],
    "parses": [
//    {"name":"Web聚合","type":3,"url":"Web"},
//    {"name":"Json轮询","type":2,"url":"Sequence"},
//    {"name":"Json并发","type":2,"url":"Parallel"},
//    # type1 聚合.并发.轮询
//解析接口配置
//showType=1(仅PC), showType=2(仅mobile), showType=3(同时显示) 
 {"name":"Web聚合","type":3,"url":"Web"},
        {"name":"纯净1","type":0,"url":"https://im1907.top/?jx=","mobile":1},
        {"name":"B站1","type":0,"url":"https://jx.jsonplayer.com/player/?url=","mobile":1},
        {"name":"YT","type":0,"url":"https://jx.yangtu.top/?url=","mobile":0},
        {"name":"BL","type":0,"url":"https://vip.bljiex.com/?v=","mobile":0},
        {"name":"冰豆","type":0,"url":"https://bd.jx.cn/?url=","mobile":0},
        {"name":"CK","type":0,"url":"https://www.ckplayer.vip/jiexi/?url=","mobile":0},
        {"name":"IK9","type":0,"url":"https://yparse.ik9.cc/index.php?url=","mobile":0},
        {"name":"弹幕","type":0,"url":"https://dmjx.m3u8.tv/?url=","mobile":0},
        {"name":"JX","type":0,"url":"https://jiexi.site/?url=","mobile":0},
        {"name":"JY","type":0,"url":"https://jx.playerjy.com/?url=","mobile":0},
        {"name":"解析la","type":0,"url":"https://api.jiexi.la/?url=","mobile":0},
        {"name":"M3U8","type":0,"url":"https://jx.m3u8.tv/jiexi/?url=","mobile":0},
        {"name":"PM","type":0,"url":"https://www.playm3u8.cn/jiexi.php?url=","mobile":0},
        {"name":"盘古","type":0,"url":"https://www.pangujiexi.cc/jiexi.php?url=","mobile":0},
        {"name":"盘古2","type":0,"url":"https://www.pangujiexi.com/jiexi/?url=","mobile":0},
        {"name":"剖云","type":0,"url":"https://www.pouyun.com/?url=","mobile":0},
        {"name":"七哥","type":0,"url":"https://jx.nnxv.cn/tv.php?url=","mobile":0},
        {"name":"神哥","type":0,"url":"https://json.ovvo.pro/jx.php?url=","mobile":0},
        {"name":"听乐","type":0,"url":"https://jx.dj6u.com/?url=","mobile":1},
        {"name":"维多","type":0,"url":"https://jx.ivito.cn/?url=","mobile":0},
        {"name":"虾米","type":0,"url":"https://jx.xmflv.com/?url=","mobile":0},
        {"name":"虾米2","type":0,"url":"https://jx.xmflv.cc/?url=","mobile":0},
        {"name":"夜幕","type":0,"url":"https://www.yemu.xyz/?url=","mobile":0},
        {"name":"云析","type":0,"url":"https://jx.yparse.com/index.php?url=","mobile":0},
        {"name":"17云","type":0,"url":"https://www.1717yun.com/jx/ty.php?url=","mobile":0},
        {"name":"180","type":0,"url":"https://jx.000180.top/jx/?url=","mobile":0},
        {"name":"2ys","type":0,"url":"https://gj.fenxiangb.com/player/analysis.php?v=","mobile":0},
        {"name":"8090","type":0,"url":"https://www.8090g.cn/?url=","mobile":0}
     ]  
    ,
    "flags": [
        "m1905",
        "douyin",
        "cntv",
        "xigua",
        "pptv",
        "wasu",
        "youku",
        "tudou",
        "优酷",
        "优 酷",
        "优酷视频",
        "qq",
        "腾讯",
        "腾 讯",
        "腾讯视频",
        "qiyi",
        "iqiyi",
        "奇艺",
        "爱奇艺",
        "爱 奇 艺",
        "leshi",
        "letv",
        "乐视",
        "乐 视",
        "sohu",
        "搜狐",
        "搜 狐",
        "搜狐视频",
        "imgo",
        "mgtv",
        "芒果",
        "芒果TV",
        "芒 果 T V",
        "bilibili",
        "哔 哩",
        "哔 哩 哔 哩"
    ],
    "ijk":[
            {"group":"软解码","options":[
                {"category":4,"name":"opensles","value":"0"},
                {"category":4,"name":"overlay-format","value":"842225234"},
                {"category":4,"name":"framedrop","value":"1"},
                {"category":4,"name":"soundtouch","value":"1"},
                {"category":4,"name":"start-on-prepared","value":"1"},
                {"category":1,"name":"http-detect-range-support","value":"0"},
                {"category":1,"name":"fflags","value":"fastseek"},
                {"category":2,"name":"skip_loop_filter","value":"48"},
                {"category":4,"name":"reconnect","value":"1"},
                {"category":4,"name":"enable-accurate-seek","value":"0"},
                {"category":4,"name":"mediacodec","value":"0"},
                {"category":4,"name":"mediacodec-auto-rotate","value":"0"},
                {"category":4,"name":"mediacodec-handle-resolution-change","value":"0"},
                {"category":4,"name":"mediacodec-hevc","value":"0"},
                {"category":1,"name":"dns_cache_timeout","value":"600000000"}
                ]
            },
            {"group":"硬解码","options":[
                {"category":4,"name":"opensles","value":"0"},
                {"category":4,"name":"overlay-format","value":"842225234"},
                {"category":4,"name":"framedrop","value":"1"},
                {"category":4,"name":"soundtouch","value":"1"},
                {"category":4,"name":"start-on-prepared","value":"1"},
                {"category":1,"name":"http-detect-range-support","value":"0"},
                {"category":1,"name":"fflags","value":"fastseek"},
                {"category":2,"name":"skip_loop_filter","value":"48"},
                {"category":4,"name":"reconnect","value":"1"},
                {"category":4,"name":"enable-accurate-seek","value":"0"},
                {"category":4,"name":"mediacodec","value":"1"},
                {"category":4,"name":"mediacodec-auto-rotate","value":"1"},
                {"category":4,"name":"mediacodec-handle-resolution-change","value":"1"},
                {"category":4,"name":"mediacodec-hevc","value":"1"},
                {"category":1,"name":"dns_cache_timeout","value":"600000000"}
                ]
            }
        ],
    "ads": [
        "wan.51img1.com",
        "iqiyi.hbuioo.com",
        "vip.ffzyad.com",
        "https://lf1-cdn-tos.bytegoofy.com/obj/tos-cn-i-dy/455ccf9e8ae744378118e4bd289288dd",
        "mimg.0c1q0l.cn",
        "www.googletagmanager.com",
        "www.google-analytics.com",
        "mc.usihnbcq.cn",
        "mg.g1mm3d.cn",
        "mscs.svaeuzh.cn",
        "cnzz.hhttm.top",
        "tp.vinuxhome.com",
        "cnzz.mmstat.com",
        "www.baihuillq.com",
        "s23.cnzz.com",
        "z3.cnzz.com",
        "c.cnzz.com",
        "stj.v1vo.top",
        "z12.cnzz.com",
        "img.mosflower.cn",
        "tips.gamevvip.com",
        "ehwe.yhdtns.com",
        "xdn.cqqc3.com",
        "www.jixunkyy.cn",
        "sp.chemacid.cn",
        "hm.baidu.com",
        "s9.cnzz.com",
        "z6.cnzz.com",
        "um.cavuc.com",
        "mav.mavuz.com",
        "wofwk.aoidf3.com",
        "z5.cnzz.com",
        "xc.hubeijieshikj.cn",
        "tj.tianwenhu.com",
        "xg.gars57.cn",
        "k.jinxiuzhilv.com",
        "cdn.bootcss.com",
        "ppl.xunzhuo123.com",
        "xomk.jiangjunmh.top",
        "img.xunzhuo123.com",
        "z1.cnzz.com",
        "s13.cnzz.com",
        "xg.huataisangao.cn",
        "z7.cnzz.com",
        "z2.cnzz.com",
        "s96.cnzz.com",
        "q11.cnzz.com",
        "thy.dacedsfa.cn",
        "xg.whsbpw.cn",
        "s19.cnzz.com",
        "z8.cnzz.com",
        "s4.cnzz.com",
        "f5w.as12df.top",
        "ae01.alicdn.com",
        "www.92424.cn",
        "k.wudejia.com",
        "vivovip.mmszxc.top",
        "qiu.xixiqiu.com",
        "cdnjs.hnfenxun.com",
        "cms.qdwght.com"
    ],
      "rules": [
    {
      "name": "饭太硬",
      "hosts": [
        "fs-im-kefu.7moor-fs1.com"   
      ],
      "regex": [
        "\\{.*\\}"
      ]
    },
     {
      "name": "量子",
      "hosts": [
        "vip.lz",
        "hd.lz",
        "v.cdnlz",
        "v.cdnlz22.com",
        "vip.lz-cdn"     
      ],
      "regex": [
        "#EXT-X-DISCONTINUITY\\r*\\n*#EXTINF:6\\.666667,[\\s\\S]*?#EXT-X-DISCONTINUITY",
        "#EXT-X-DISCONTINUITY\\r*\\n*#EXTINF:6\\.933333,[\\s\\S]*?#EXT-X-DISCONTINUITY",
        "#EXT-X-DISCONTINUITY\\r*\\n*#EXTINF:5\\.700000,[\\s\\S]*?#EXT-X-DISCONTINUITY",
        "#EXTINF.*?\\s+.*?1o.*?\\.ts\\s+",
        "18.5333",
        "#EXTINF.*?\\s+.*?/([a-fA-F0-9]{32})\\.ts\\s+"
      ]
    },
    {
      "name": "非凡",
      "hosts": [
        "vip.ffzy",
        "hd.ffzy",
        "ffzy",
        "svipsvip.ffzy-online5.com"
      ],
      "regex": [
        "#EXT-X-DISCONTINUITY\\r*\\n*#EXTINF:4\\.400000,[\\s\\S]*?#EXT-X-DISCONTINUITY",
        "#EXT-X-DISCONTINUITY\\r*\\n*#EXTINF:6\\.566667,[\\s\\S]*?#EXT-X-DISCONTINUITY",
        "#EXT-X-DISCONTINUITY\\r*\\n*#EXTINF:6\\.466667,[\\s\\S]*?#EXT-X-DISCONTINUITY",
        "#EXT-X-DISCONTINUITY\\r*\\n*#EXTINF:6\\.600000,[\\s\\S]*?#EXT-X-DISCONTINUITY",
        "#EXT-X-DISCONTINUITY\\r*\\n*#EXTINF:6\\.666667,[\\s\\S]*?#EXT-X-DISCONTINUITY",
 //       "#EXT-X-DISCONTINUITY\\r?\\n#EXTINF:(6\\.666667|6\\.466667),[\\s\\S]*?\\r?\\n#EXT-X-DISCONTINUITY",        
        "9.93333"
      ]
    },
    {
      "name": "cl",
      "hosts": [
        "magnet"
      ],
      "regex": [
        "最 新",
        "直 播",
        "更 新"
      ]
    }
  ]
}