{
    //hearofnight夜听枫语
	//一起看sex  日本┃动漫 待删除
    "spider": "https://hon.honplus.xyz/META-INF/JDK/HONTV_20240527172722.jar;md5;300385ecd7c80724731d5a3bb6feafd2",
	"wallpaper":"http://live.honplus.xyz:8880/",
    "lives": [
    {
        "name": "直播",
        "type": 0,
        "url": "http://pro.honplus.xyz:880/live20230905",        
        "epg":"http://epg.honplus.xyz:882/api/diyp/?ch={name}&date={date}",
        "logo": "https://live.fanmingming.com/tv/{name}.png"
    },
    {
      "group": "redirect",
      "channels": [
        {
          "name": "live",
          "urls": [
            "proxy://do=live&type=txt&ext=aHR0cDovL3Byby5ob250di5jbjo4ODAvbGl2ZTIwMjMwOTA1"
          ]
        }
      ],
      "epg":"http://epg.honplus.xyz:882"
	  //"logo": "https://live.fanmingming.com/tv/{name}.png"
    }
  ] ,
    "sites": [
  /*    
    {
            "key": "比特",
            "name": "主力七|高清",
            "type": 3,
            "api": "csp_Bttwo",
            "searchable": 1,
            "quickSearch": 1,
            "filterable": 1
      },
  */
    {
            "key": "厂长资源2",
            "name": "主力六|高清",
            "type": 3,
            "api": "csp_NewCz",
 //           "api": "csp_Czsapp",
            "searchable": 1,
            "quickSearch": 1,
            "filterable": 1,
 //           "jar":"https://hon.honplus.xyz/META-INF/JDK/HONTV_202306060153.jar;md5;b42276351a9a7c539d2e43be512b52f1",
            "jar":"https://hon.honplus.xyz/META-INF/JDK/HONTV_20240612181309.jar;md5;e2dea6deba1ec67c45a3e20ff418922e",
            "ext": "https://www.cz01.vip/"
      },
    {
            "key": "厂长资源",
            "name": "主力三|高清",
            "type": 3,
            "api": "csp_Czsapp",
            "searchable": 1,
            "quickSearch": 1,
            "filterable": 1,
            "ext": "https://www.cz01.vip/"
      },
    {
            "key": "厂长资源1",
            "name":"主力四|高清",
            "type": 3,
            "api": "https://hon.honplus.xyz/honjs/libs/drpy2.min.js",
            "searchable": 1,
            "quickSearch": 1,
            "filterable": 1,
            "ext": "https://hon.honplus.xyz/honjs/libs/czspp.js"
      },
/*      
    {
	
            "key": "哔嘀影视",
            "name": "主力五|高清",
            "type": 3,
            "api": "csp_Bdys",
            "searchable": 1,
            "quickSearch": 1,
            "filterable": 1,
            "ext": "https://www.yjys01.com/",
            "playerType": 1
      },
*/
    {
            "key": "荐片",
            "name": "主力八|高清",
            "type": 3,
            "api": "csp_Jianpian",
            "searchable": 1,
            "quickSearch": 1,
            "filterable": 1,
            "ext":"http://api2.rinhome.com",
            "playerType": "1"
      },
    {
            "key": "低端",
            "name": "主力九|高清",
            "type": 3,
            "api": "https://hon.honplus.xyz/honjs/libs/drpy2.min.js",
            "searchable": 1,
            "quickSearch": 1,
            "filterable": 1,
            "ext": "https://hon.honplus.xyz/honjs/libs/ddys.js",
            "playerType": "2"
      },
    {
            "key": "csp_xml_非凡资源",
            "name": "高清vip(主力一)",
            "type": 1,
            "api": "https://cj.ffzyapi.com/api.php/provide/vod/",
            "playUrl": "",
            "searchable": 1,
            "quickSearch": 1,
            "filterable": 1,
            "categories": ["国产剧","欧美剧","香港剧","韩国剧","台湾剧","日本剧","海外剧","泰国剧","国产动漫","日韩动漫","欧美动漫","港台动漫", "海外动漫","大陆综艺","港台综艺","日韩综艺","欧美综艺","动作片","喜剧片","科幻片","恐怖片","爱情片","剧情片","战争片","记录片"]
      },
    {
            "key": "量子资源",
            "name": "高清vip(主力二)",
            "type": 1,
            "api": " https://cj.lzcaiji.com/api.php/provide/vod/",
            "playUrl": "",
            "searchable": 1,
            "quickSearch": 1,
            "filterable": 1,
            "categories": [
               "国产剧","香港剧","韩国剧","欧美剧","记录片","台湾剧","日本剧","海外剧","泰国剧","大陆综艺","港台综艺","日韩综艺","欧美综艺","国产动漫","日韩动漫","欧美动漫","港台动漫","海外动漫","动作片","喜剧片","爱情片","科幻片","恐怖片","剧情片","战争片","伦理片","电影解说"]
      },
/*
    {
            "key":"mtv_pc_yinfans",
            "name":"音范丝4K",
            "type":3,
            "api":"csp_XPath",
            "searchable":1,
            "quickSearch":1,
            "filterable":1,
            "ext":"https://hon.honplus.xyz/JS/yinfans.json",
            "jar":"https://hon.honplus.xyz/META-INF/JDK/ggtv.jar;md5;fc546c735827e5b3c2dfe91bfbe64350"
            },
*/
        {
            "key":"儿童",
            "name":"👶儿童学堂",
            "type":3,
            "api":"csp_Bili",
            "searchable":0,
            "quickSearch":0,
            "filterable":1,
            "jar":"https://hon.honplus.xyz/META-INF/JDK/HONTV_202309051238.jar;md5;0B81C0AC4917CA94B8446758D09227E5",
            "ext":"https://hon.honplus.xyz/JS/儿童学堂.json"
            },
        {
            "key":"小学",
            "name":"👦小学学堂",
            "type":3,
            "api":"csp_Bili",
            "searchable":0,
            "quickSearch":0,
            "filterable":0,
            "jar":"https://hon.honplus.xyz/META-INF/JDK/HONTV_202309051238.jar;md5;0B81C0AC4917CA94B8446758D09227E5",
            "ext":"https://hon.honplus.xyz/JS/小学学堂.json"
            },
        {
            "key":"初中",
            "name":"👨‍🦱初中学堂",
            "type":3,
            "api":"csp_Bili",
            "searchable":0,
            "quickSearch":0,
            "filterable":0,
            "jar":"https://hon.honplus.xyz/META-INF/JDK/HONTV_202309051238.jar;md5;0B81C0AC4917CA94B8446758D09227E5",
            "ext":"https://hon.honplus.xyz/JS/初中学堂.json"
            },
        {
            "key":"高中",
            "name":"👩‍🎓高中学堂",
            "type":3,
            "api":"csp_Bili",
            "searchable":0,
            "quickSearch":0,
            "filterable":0,
            "jar":"https://hon.honplus.xyz/META-INF/JDK/HONTV_202309051238.jar;md5;0B81C0AC4917CA94B8446758D09227E5",
            "ext":"https://hon.honplus.xyz/JS/高中学堂.json"
            },
        {
            "key":"csp_戏曲",
            "name":"国粹戏曲",
            "type":3,
            "api":"csp_Bili",
            "searchable":0,
            "quickSearch":0,
            "filterable":1,
            "ext":"https://hon.honplus.xyz/ext/%E5%9B%BD%E7%B2%B9%E6%88%8F%E6%9B%B2.txt",
            "jar":"https://hon.honplus.xyz/META-INF/JDK/HONTV_202309051238.jar;md5;0B81C0AC4917CA94B8446758D09227E5"
            }
    ],
    "parses": [
//    {"name":"Web聚合","type":3,"url":"Web"},
//    {"name":"Json轮询","type":2,"url":"Sequence"},
//    {"name":"Json并发","type":2,"url":"Parallel"},
//    # type1 聚合.并发.轮询
//解析接口配置
//showType=1(仅PC), showType=2(仅mobile), showType=3(同时显示) 
 {"name":"Web聚合","type":3,"url":"Web"},
        {"name":"-咸鱼-","type":0,"url":"https://jx.xyflv.cc/?url=","ext":{"header":{"user-agent":"Mozilla/5.0 (Linux; Android 13; V2049A Build/TP1A.220624.014; wv) AppleWebKit/537.36 (KHTML, like Gecko) Version/4.0 Chrome/116.0.0.0 Mobile Safari/537.36","referer":"https://www.xyflv.cc/"}}},
        {"name":"-虾米-","type":0,"url":"https://jx.xmflv.com/?url=","ext":{"header":{"user-agent":"Mozilla/5.0 (Windows NT 10.0; Win64; x64) AppleWebKit/537.36 (KHTML, like Gecko) Chrome/110.0.0.0 Safari/537.36 Edg/110.0.1587.57"}}},
        {"name":"-爱酷-","type":0,"url":"https://jx.zhanlangbu.com/?url=","ext":{"flag":["qq","腾讯","qiyi","爱奇艺","奇艺","youku","优酷","mgtv","芒果","letv","乐视","pptv","PPTV","sohu","bilibili","哔哩哔哩","哔哩"],"ext":{"header":{"user-agent":"Mozilla/5.0 (Linux; Android 13; V2049A Build/TP1A.220624.014; wv) AppleWebKit/537.36 (KHTML, like Gecko) Version/4.0 Chrome/116.0.0.0 Mobile Safari/537.36"}}}},
        {"name":"-云解析-","type":0,"url":"https://jx.yparse.com/index.php?url=","ext":{"header":{"user-agent":"Mozilla/5.0 (Linux; Android 13; V2049A Build/TP1A.220624.014; wv) AppleWebKit/537.36 (KHTML, like Gecko) Version/4.0 Chrome/116.0.0.0 Mobile Safari/537.36"}}},
        {"name":"-777-","type":0,"url":"https://jx.jsonplayer.com/player/?url=","ext":{"header":{"user-agent":"Mozilla/5.0 (Linux; Android 13; V2049A Build/TP1A.220624.014; wv) AppleWebKit/537.36 (KHTML, like Gecko) Version/4.0 Chrome/116.0.0.0 Mobile Safari/537.36"}}},
        {"name":"-剖云-","type":0,"url":"https://www.kkvip2022.com/vip/jiexi1/?url=","ext":{"header":{"user-agent":"Mozilla/5.0 (Linux; Android 13; V2049A Build/TP1A.220624.014; wv) AppleWebKit/537.36 (KHTML, like Gecko) Version/4.0 Chrome/116.0.0.0 Mobile Safari/537.36"}}},
        {"name":"-全看-","type":0,"url":"https://jx.quankan.app/?url=","ext":{"header":{"user-agent":"Mozilla/5.0 (Linux; Android 13; V2049A Build/TP1A.220624.014; wv) AppleWebKit/537.36 (KHTML, like Gecko) Version/4.0 Chrome/116.0.0.0 Mobile Safari/537.36"}}},
        {"name":"-爱豆-","type":0,"url":"https://jx.aidouer.net/?url=","ext":{"header":{"user-agent":"Mozilla/5.0 (Linux; Android 13; V2049A Build/TP1A.220624.014; wv) AppleWebKit/537.36 (KHTML, like Gecko) Version/4.0 Chrome/116.0.0.0 Mobile Safari/537.36","referer":"https://jiejie.uk/"}}}

     ]  
    ,
    "flags": [
        "m1905",
        "douyin",
        "cntv",
        "xigua",
        "pptv",
        "wasu",
        "youku",
        "tudou",
        "优酷",
        "优 酷",
        "优酷视频",
        "qq",
        "腾讯",
        "腾 讯",
        "腾讯视频",
        "qiyi",
        "iqiyi",
        "奇艺",
        "爱奇艺",
        "爱 奇 艺",
        "leshi",
        "letv",
        "乐视",
        "乐 视",
        "sohu",
        "搜狐",
        "搜 狐",
        "搜狐视频",
        "imgo",
        "mgtv",
        "芒果",
        "芒果TV",
        "芒 果 T V",
        "bilibili",
        "哔 哩",
        "哔 哩 哔 哩"
    ],
    "ijk":[
            {"group":"软解码","options":[
                {"category":4,"name":"opensles","value":"0"},
                {"category":4,"name":"overlay-format","value":"842225234"},
                {"category":4,"name":"framedrop","value":"1"},
                {"category":4,"name":"soundtouch","value":"1"},
                {"category":4,"name":"start-on-prepared","value":"1"},
                {"category":1,"name":"http-detect-range-support","value":"0"},
                {"category":1,"name":"fflags","value":"fastseek"},
                {"category":2,"name":"skip_loop_filter","value":"48"},
                {"category":4,"name":"reconnect","value":"1"},
                {"category":4,"name":"enable-accurate-seek","value":"0"},
                {"category":4,"name":"mediacodec","value":"0"},
                {"category":4,"name":"mediacodec-auto-rotate","value":"0"},
                {"category":4,"name":"mediacodec-handle-resolution-change","value":"0"},
                {"category":4,"name":"mediacodec-hevc","value":"0"},
                {"category":1,"name":"dns_cache_timeout","value":"600000000"}
                ]
            },
            {"group":"硬解码","options":[
                {"category":4,"name":"opensles","value":"0"},
                {"category":4,"name":"overlay-format","value":"842225234"},
                {"category":4,"name":"framedrop","value":"1"},
                {"category":4,"name":"soundtouch","value":"1"},
                {"category":4,"name":"start-on-prepared","value":"1"},
                {"category":1,"name":"http-detect-range-support","value":"0"},
                {"category":1,"name":"fflags","value":"fastseek"},
                {"category":2,"name":"skip_loop_filter","value":"48"},
                {"category":4,"name":"reconnect","value":"1"},
                {"category":4,"name":"enable-accurate-seek","value":"0"},
                {"category":4,"name":"mediacodec","value":"1"},
                {"category":4,"name":"mediacodec-auto-rotate","value":"1"},
                {"category":4,"name":"mediacodec-handle-resolution-change","value":"1"},
                {"category":4,"name":"mediacodec-hevc","value":"1"},
                {"category":1,"name":"dns_cache_timeout","value":"600000000"}
                ]
            }
        ],
    "ads": [
        "wan.51img1.com",
        "iqiyi.hbuioo.com",
        "vip.ffzyad.com",
        "https://lf1-cdn-tos.bytegoofy.com/obj/tos-cn-i-dy/455ccf9e8ae744378118e4bd289288dd",
        "mimg.0c1q0l.cn",
        "www.googletagmanager.com",
        "www.google-analytics.com",
        "mc.usihnbcq.cn",
        "mg.g1mm3d.cn",
        "mscs.svaeuzh.cn",
        "cnzz.hhttm.top",
        "tp.vinuxhome.com",
        "cnzz.mmstat.com",
        "www.baihuillq.com",
        "s23.cnzz.com",
        "z3.cnzz.com",
        "c.cnzz.com",
        "stj.v1vo.top",
        "z12.cnzz.com",
        "img.mosflower.cn",
        "tips.gamevvip.com",
        "ehwe.yhdtns.com",
        "xdn.cqqc3.com",
        "www.jixunkyy.cn",
        "sp.chemacid.cn",
        "hm.baidu.com",
        "s9.cnzz.com",
        "z6.cnzz.com",
        "um.cavuc.com",
        "mav.mavuz.com",
        "wofwk.aoidf3.com",
        "z5.cnzz.com",
        "xc.hubeijieshikj.cn",
        "tj.tianwenhu.com",
        "xg.gars57.cn",
        "k.jinxiuzhilv.com",
        "cdn.bootcss.com",
        "ppl.xunzhuo123.com",
        "xomk.jiangjunmh.top",
        "img.xunzhuo123.com",
        "z1.cnzz.com",
        "s13.cnzz.com",
        "xg.huataisangao.cn",
        "z7.cnzz.com",
        "z2.cnzz.com",
        "s96.cnzz.com",
        "q11.cnzz.com",
        "thy.dacedsfa.cn",
        "xg.whsbpw.cn",
        "s19.cnzz.com",
        "z8.cnzz.com",
        "s4.cnzz.com",
        "f5w.as12df.top",
        "ae01.alicdn.com",
        "www.92424.cn",
        "k.wudejia.com",
        "vivovip.mmszxc.top",
        "qiu.xixiqiu.com",
        "cdnjs.hnfenxun.com",
        "cms.qdwght.com"
    ],
      "rules": [
     {
      "name": "量子",
      "hosts": [
        "vip.lz",
        "hd.lz",
        "v.cdnlz"
      ],
      "regex": [
        "#EXT-X-DISCONTINUITY\\r*\\n*#EXTINF:6\\.666667,[\\s\\S]*?#EXT-X-DISCONTINUITY",
        "#EXTINF.*?\\s+.*?1o.*?\\.ts\\s+",
        "18.5333",
        "17.20",
        "19.84"
      ]
    },
    {
      "name": "非凡",
      "hosts": [
        "vip.ffzy",
        "hd.ffzy",
        "ffzy"
      ],
      "regex": [
         "https:\/\/super.ffzy-online6.com\/d{8}\/d{5}_[a-f0-9]+\/d+k\/hls\/9f1171315848669[1-5]\/.ts",
         "9.93333",
         "9.935",
         "9.93666",
         "9.938",
         "9.94",
         "9.9416",
         "9.9433",
         "9.945",
         "9.9466",
         "9.9483",
         "9.95",
         "18.0"
      ]
    },
    {
      "name": "cl",
      "hosts": [
        "magnet"
      ],
      "regex": [
        "最 新",
        "直 播",
        "更 新"
      ]
    }
  ]
}